%!PS-Adobe-2.0
%%Creator: dot version 1.8.5 (Sun Jun 15 12:58:19 EDT 2003)
%%For: (barrand) Guy Barrand
%%Title: gui
%%Pages: (atend)
%%BoundingBox: 35 35 615 233
%%EndComments
save
%%BeginProlog
/DotDict 200 dict def
DotDict begin

/setupLatin1 {
mark
/EncodingVector 256 array def
 EncodingVector 0

ISOLatin1Encoding 0 255 getinterval putinterval

EncodingVector
  dup 306 /AE
  dup 301 /Aacute
  dup 302 /Acircumflex
  dup 304 /Adieresis
  dup 300 /Agrave
  dup 305 /Aring
  dup 303 /Atilde
  dup 307 /Ccedilla
  dup 311 /Eacute
  dup 312 /Ecircumflex
  dup 313 /Edieresis
  dup 310 /Egrave
  dup 315 /Iacute
  dup 316 /Icircumflex
  dup 317 /Idieresis
  dup 314 /Igrave
  dup 334 /Udieresis
  dup 335 /Yacute
  dup 376 /thorn
  dup 337 /germandbls
  dup 341 /aacute
  dup 342 /acircumflex
  dup 344 /adieresis
  dup 346 /ae
  dup 340 /agrave
  dup 345 /aring
  dup 347 /ccedilla
  dup 351 /eacute
  dup 352 /ecircumflex
  dup 353 /edieresis
  dup 350 /egrave
  dup 355 /iacute
  dup 356 /icircumflex
  dup 357 /idieresis
  dup 354 /igrave
  dup 360 /dcroat
  dup 361 /ntilde
  dup 363 /oacute
  dup 364 /ocircumflex
  dup 366 /odieresis
  dup 362 /ograve
  dup 365 /otilde
  dup 370 /oslash
  dup 372 /uacute
  dup 373 /ucircumflex
  dup 374 /udieresis
  dup 371 /ugrave
  dup 375 /yacute
  dup 377 /ydieresis  

% Set up ISO Latin 1 character encoding
/starnetISO {
        dup dup findfont dup length dict begin
        { 1 index /FID ne { def }{ pop pop } ifelse
        } forall
        /Encoding EncodingVector def
        currentdict end definefont
} def
/Times-Roman starnetISO def
/Times-Italic starnetISO def
/Times-Bold starnetISO def
/Times-BoldItalic starnetISO def
/Helvetica starnetISO def
/Helvetica-Oblique starnetISO def
/Helvetica-Bold starnetISO def
/Helvetica-BoldOblique starnetISO def
/Courier starnetISO def
/Courier-Oblique starnetISO def
/Courier-Bold starnetISO def
/Courier-BoldOblique starnetISO def
cleartomark
} bind def

%%BeginResource: procset
/coord-font-family /Times-Roman def
/default-font-family /Times-Roman def
/coordfont coord-font-family findfont 8 scalefont def

/InvScaleFactor 1.0 def
/set_scale {
	dup 1 exch div /InvScaleFactor exch def
	dup scale
} bind def

% styles
/solid { } bind def
/dashed { [9 InvScaleFactor mul dup ] 0 setdash } bind def
/dotted { [1 InvScaleFactor mul 6 InvScaleFactor mul] 0 setdash } bind def
/invis {/fill {newpath} def /stroke {newpath} def /show {pop newpath} def} bind def
/bold { 2 setlinewidth } bind def
/filled { } bind def
/unfilled { } bind def
/rounded { } bind def
/diagonals { } bind def

% hooks for setting color 
/nodecolor { sethsbcolor } bind def
/edgecolor { sethsbcolor } bind def
/graphcolor { sethsbcolor } bind def
/nopcolor {pop pop pop} bind def

/beginpage {	% i j npages
	/npages exch def
	/j exch def
	/i exch def
	/str 10 string def
	npages 1 gt {
		gsave
			coordfont setfont
			0 0 moveto
			(\() show i str cvs show (,) show j str cvs show (\)) show
		grestore
	} if
} bind def

/set_font {
	findfont exch
	scalefont setfont
} def

% draw aligned label in bounding box aligned to current point
/alignedtext {			% width adj text
	/text exch def
	/adj exch def
	/width exch def
	gsave
		width 0 gt {
			text stringwidth pop adj mul 0 rmoveto
		} if
		[] 0 setdash
		text show
	grestore
} def

/boxprim {				% xcorner ycorner xsize ysize
		4 2 roll
		moveto
		2 copy
		exch 0 rlineto
		0 exch rlineto
		pop neg 0 rlineto
		closepath
} bind def

/ellipse_path {
	/ry exch def
	/rx exch def
	/y exch def
	/x exch def
	matrix currentmatrix
	newpath
	x y translate
	rx ry scale
	0 0 1 0 360 arc
	setmatrix
} bind def

/endpage { showpage } bind def

/layercolorseq
	[	% layer color sequence - darkest to lightest
		[0 0 0]
		[.2 .8 .8]
		[.4 .8 .8]
		[.6 .8 .8]
		[.8 .8 .8]
	]
def

/setlayer {/maxlayer exch def /curlayer exch def
	layercolorseq curlayer get
	aload pop sethsbcolor
	/nodecolor {nopcolor} def
	/edgecolor {nopcolor} def
	/graphcolor {nopcolor} def
} bind def

/onlayer { curlayer ne {invis} if } def

/onlayers {
	/myupper exch def
	/mylower exch def
	curlayer mylower lt
	curlayer myupper gt
	or
	{invis} if
} def

/curlayer 0 def

%%EndResource
%%EndProlog
%%BeginSetup
14 default-font-family set_font
1 setmiterlimit
% /arrowlength 10 def
% /arrowwidth 5 def

% make sure pdfmark is harmless for PS-interpreters other than Distiller
/pdfmark where {pop} {userdict /pdfmark /cleartomark load put} ifelse
% make '<<' and '>>' safe on PS Level 1 devices
/languagelevel where {pop languagelevel}{1} ifelse
2 lt {
    userdict (<<) cvn ([) cvn load put
    userdict (>>) cvn ([) cvn load put
} if

%%EndSetup
%%Page: 1 1
%%PageBoundingBox: 36 36 615 233
%%PageOrientation: Portrait
gsave
35 35 580 198 boxprim clip newpath
36 36 translate
0 0 1 beginpage
0 0 translate 0 rotate
0.000 0.000 0.000 graphcolor
14.00 /Times-Roman set_font

%	Main panel
gsave 10 dict begin
254 170 50 18 ellipse_path
stroke
gsave 10 dict begin
254 165 moveto 79 -0.5 (Main panel) alignedtext
end grestore
end grestore

%	Menus
gsave 10 dict begin
36 98 34 18 ellipse_path
stroke
gsave 10 dict begin
36 93 moveto 47 -0.5 (Menus) alignedtext
end grestore
end grestore

%	Main panel -> Menus
newpath 215 159 moveto
179 148 125 132 79 116 curveto
77 115 75 114 72 113 curveto
stroke
0.000 0.000 0.000 edgecolor
newpath 71 115 moveto
63 109 lineto
73 111 lineto
closepath
fill
0.000 0.000 0.000 edgecolor

%	Tree viewer
gsave 10 dict begin
140 98 52 18 ellipse_path
stroke
gsave 10 dict begin
140 93 moveto 82 -0.5 (Tree viewer) alignedtext
end grestore
end grestore

%	Main panel -> Tree viewer
newpath 229 154 moveto
213 144 191 130 173 119 curveto
stroke
0.000 0.000 0.000 edgecolor
newpath 172 121 moveto
165 114 lineto
175 117 lineto
closepath
fill
0.000 0.000 0.000 edgecolor

%	Viewer(s)
gsave 10 dict begin
254 98 44 18 ellipse_path
stroke
gsave 10 dict begin
254 93 moveto 66 -0.5 (Viewer\(s\)) alignedtext
end grestore
end grestore

%	Main panel -> Viewer(s)
newpath 254 152 moveto
254 144 254 135 254 126 curveto
stroke
0.000 0.000 0.000 edgecolor
newpath 252 126 moveto
254 116 lineto
257 126 lineto
closepath
fill
0.000 0.000 0.000 edgecolor

%	Dump area
gsave 10 dict begin
366 98 50 18 ellipse_path
stroke
gsave 10 dict begin
366 93 moveto 78 -0.5 (Dump area) alignedtext
end grestore
end grestore

%	Main panel -> Dump area
newpath 279 154 moveto
295 144 316 130 334 119 curveto
stroke
0.000 0.000 0.000 edgecolor
newpath 332 117 moveto
342 114 lineto
335 121 lineto
closepath
fill
0.000 0.000 0.000 edgecolor

%	Command typing
gsave 10 dict begin
506 98 72 18 ellipse_path
stroke
gsave 10 dict begin
506 93 moveto 123 -0.5 (Command typing) alignedtext
end grestore
end grestore

%	Main panel -> Command typing
newpath 293 159 moveto
336 147 405 127 452 114 curveto
stroke
0.000 0.000 0.000 edgecolor
newpath 449 112 moveto
459 112 lineto
450 117 lineto
closepath
fill
0.000 0.000 0.000 edgecolor

%	Dialogs
gsave 10 dict begin
36 26 36 18 ellipse_path
stroke
gsave 10 dict begin
36 21 moveto 51 -0.5 (Dialogs) alignedtext
end grestore
end grestore

%	Menus -> Dialogs
newpath 36 80 moveto
36 72 36 63 36 54 curveto
stroke
0.000 0.000 0.000 edgecolor
newpath 34 54 moveto
36 44 lineto
39 54 lineto
closepath
fill
0.000 0.000 0.000 edgecolor
endpage
grestore
%%PageTrailer
%%EndPage: 1
%%Trailer
%%Pages: 1
end
restore
%%EOF
