Warning in <TInterpreter::ReadRootmapFile>: class  IVeloExpectation found in libTrackInterfacesDict.so  is already in libSoEventDict.so
Warning in <TInterpreter::ReadRootmapFile>: class  IVeloExpectation::Info found in libTrackInterfacesDict.so  is already in libSoEventDict.so
Warning in <TInterpreter::ReadRootmapFile>: class  ILumiIntegrator found in libLumiAlgsDict.so  is already in libSoEventDict.so
Warning in <TInterpreter::ReadRootmapFile>: class  LHCb::VPCluster found in libDigiEventDict.so  is already in libSoEventDict.so
Warning in <TInterpreter::ReadRootmapFile>: class  Gaudi::Range_<std::vector<const LHCb::Node*> > found in libTrackEventDict.so  is already in libSoEventDict.so
Warning in <TInterpreter::ReadRootmapFile>: class  Gaudi::Range_<vector<const LHCb::Node*> > found in libTrackEventDict.so  is already in libSoEventDict.so
Warning in <TInterpreter::ReadRootmapFile>: class  ICaloElectron found in libCaloUtilsDict.so  is already in libSoEventDict.so
Warning in <TInterpreter::ReadRootmapFile>: class  DeVeloSensor found in libVeloDetDict.so  is already in libSoEventDict.so
Warning in <TInterpreter::ReadRootmapFile>: class  HepMC::GenVertex::particles_in_const_iterator found in libHepMCRflx.so  is already in libSoEventDict.so
Warning in <TInterpreter::ReadRootmapFile>: class  __gnu_cxx::__normal_iterator<HepMC::GenParticle*const*,vector<HepMC::GenParticle*> > found in libHepMCRflx.so  is already in libSoEventDict.so
libGL error: failed to open drm device: No such file or directory
libGL error: failed to load driver: i965
Warning in <TClassTable::Add>: class Gaudi::Range_<vector<const LHCb::Node*> > already in TClassTable
Warning in <TClassTable::Add>: class LHCb::VPCluster already in TClassTable
